[
  {
    "version": "0.0.1",
    "releaseDate": "2019-01-10",
    "fixes": [
      {
        "issueNo": 1,
        "title": "first issue",
        "description": "description",
        "type": "bug"
      },
      {
        "issueNo": 2,
        "title": "second issue",
        "description": "description",
        "type": "feature"
      }
    ]
  }
]
